\babel@toc {german}{}
\beamer@sectionintoc {1}{Einf\IeC {\"u}hrung}{3}{0}{1}
\beamer@sectionintoc {2}{Dopplungen in den Daten}{4}{0}{2}
\beamer@sectionintoc {3}{Fehlende Werte}{6}{0}{3}
\beamer@sectionintoc {4}{Werte ersetzen}{7}{0}{4}
