\relax 
\providecommand\hyper@newdestlabel[2]{}
\providecommand{\transparent@use}[1]{}
\providecommand\HyperFirstAtBeginDocument{\AtBeginDocument}
\HyperFirstAtBeginDocument{\ifx\hyper@anchor\@undefined
\global\let\oldcontentsline\contentsline
\gdef\contentsline#1#2#3#4{\oldcontentsline{#1}{#2}{#3}}
\global\let\oldnewlabel\newlabel
\gdef\newlabel#1#2{\newlabelxx{#1}#2}
\gdef\newlabelxx#1#2#3#4#5#6{\oldnewlabel{#1}{{#2}{#3}}}
\AtEndDocument{\ifx\hyper@anchor\@undefined
\let\contentsline\oldcontentsline
\let\newlabel\oldnewlabel
\fi}
\fi}
\global\let\hyper@last\relax 
\gdef\HyperFirstAtBeginDocument#1{#1}
\providecommand\HyField@AuxAddToFields[1]{}
\providecommand\HyField@AuxAddToCoFields[2]{}
\catcode `"\active 
\providecommand\pbs@newkey[2]{}
\providecommand\pbs@seq@push@cx[2]{}
\providecommand\pbs@at@end@dvi@check{}
\pbs@at@end@dvi@check
\providecommand\mix@newkey[2]{}
\providecommand\@anim@newkey[2]{}
\pbs@newkey{pbs@last@page}{1}
\babel@aux{german}{}
\@writefile{nav}{\headcommand {\slideentry {0}{0}{1}{1/1}{}{0}}}
\@writefile{nav}{\headcommand {\beamer@framepages {1}{1}}}
\pbs@newkey{pbs@last@page}{2}
\@writefile{nav}{\headcommand {\slideentry {0}{0}{2}{2/2}{}{0}}}
\@writefile{nav}{\headcommand {\beamer@framepages {2}{2}}}
\pbs@newkey{pbs@last@page}{3}
\@writefile{toc}{\beamer@sectionintoc {1}{Einf\IeC {\"u}hrung}{3}{0}{1}}
\@writefile{nav}{\headcommand {\beamer@sectionpages {1}{2}}}
\@writefile{nav}{\headcommand {\beamer@subsectionpages {1}{2}}}
\@writefile{nav}{\headcommand {\sectionentry {1}{Einf\IeC {\"u}hrung}{3}{Einf\IeC {\"u}hrung}{0}}}
\@writefile{nav}{\headcommand {\slideentry {1}{0}{1}{3/3}{}{0}}}
\@writefile{nav}{\headcommand {\beamer@framepages {3}{3}}}
\pbs@newkey{pbs@last@page}{4}
\@writefile{toc}{\beamer@sectionintoc {2}{Dopplungen in den Daten}{4}{0}{2}}
\@writefile{nav}{\headcommand {\beamer@sectionpages {3}{3}}}
\@writefile{nav}{\headcommand {\beamer@subsectionpages {3}{3}}}
\@writefile{nav}{\headcommand {\sectionentry {2}{Dopplungen in den Daten}{4}{Dopplungen in den Daten}{0}}}
\@writefile{nav}{\headcommand {\slideentry {2}{0}{1}{4/4}{}{0}}}
\@writefile{nav}{\headcommand {\beamer@framepages {4}{4}}}
\pbs@newkey{pbs@last@page}{5}
\@writefile{nav}{\headcommand {\slideentry {2}{0}{2}{5/5}{}{0}}}
\@writefile{nav}{\headcommand {\beamer@framepages {5}{5}}}
\pbs@newkey{pbs@last@page}{6}
\@writefile{toc}{\beamer@sectionintoc {3}{Fehlende Werte}{6}{0}{3}}
\@writefile{nav}{\headcommand {\beamer@sectionpages {4}{5}}}
\@writefile{nav}{\headcommand {\beamer@subsectionpages {4}{5}}}
\@writefile{nav}{\headcommand {\sectionentry {3}{Fehlende Werte}{6}{Fehlende Werte}{0}}}
\@writefile{nav}{\headcommand {\slideentry {3}{0}{1}{6/6}{}{0}}}
\@writefile{nav}{\headcommand {\beamer@framepages {6}{6}}}
\pbs@newkey{pbs@last@page}{7}
\@writefile{toc}{\beamer@sectionintoc {4}{Werte ersetzen}{7}{0}{4}}
\@writefile{nav}{\headcommand {\beamer@sectionpages {6}{6}}}
\@writefile{nav}{\headcommand {\beamer@subsectionpages {6}{6}}}
\@writefile{nav}{\headcommand {\sectionentry {4}{Werte ersetzen}{7}{Werte ersetzen}{0}}}
\@writefile{nav}{\headcommand {\slideentry {4}{0}{1}{7/7}{}{0}}}
\@writefile{nav}{\headcommand {\beamer@framepages {7}{7}}}
\@writefile{nav}{\headcommand {\beamer@partpages {1}{7}}}
\@writefile{nav}{\headcommand {\beamer@subsectionpages {7}{7}}}
\@writefile{nav}{\headcommand {\beamer@sectionpages {7}{7}}}
\@writefile{nav}{\headcommand {\beamer@documentpages {7}}}
\@writefile{nav}{\headcommand {\gdef \inserttotalframenumber {7}}}
\newlabel{LastPage}{{}{7}{}{page.7}{}}
\xdef\lastpage@lastpage{7}
\xdef\lastpage@lastpageHy{7}
